C:\Users\diana\Documents\Anul 4\DS\assignment_12\src\main\java\dao\domain\User.java
C:\Users\diana\Documents\Anul 4\DS\assignment_12\src\main\java\dao\domain\Flight.java
C:\Users\diana\Documents\Anul 4\DS\assignment_12\src\main\java\Main.java
C:\Users\diana\Documents\Anul 4\DS\assignment_12\src\main\java\dao\domain\City.java
C:\Users\diana\Documents\Anul 4\DS\assignment_12\src\main\java\dao\database\FlightDAO.java
C:\Users\diana\Documents\Anul 4\DS\assignment_12\src\main\java\dao\domain\UserRole.java
